…
Let's look at the raw and outbreak-adjusted proportions of the K-locus.

```r
get_counts(data, "K_locus")
```

Which displays the following:

```r
Removing K_locus from epi_vars
Grouping var: K_locus
Epi vars: ST, K_type, O_locus, O_type, Country, Study, Site, Cluster, Large_cluster
Adj vars: Cluster, Site, Study, ST
# A tibble: 140 × 14
   K_locus raw_count adj_count raw_prop adj_prop  n_ST n_K_type n_O_locus
   <chr>       <int>     <int>    <dbl>    <dbl> <int>    <int>     <int>
 1 KL107         731       448   0.0771   0.0710   197        1        12
 2 KL2           575       347   0.0606   0.0550    42        1         3
 3 KL102         721       309   0.0760   0.0490    38        1         4
 4 KL24          391       288   0.0412   0.0456    35        1         3
 5 KL15          368       189   0.0388   0.0300    31        1         2
 6 KL62          280       185   0.0295   0.0293    41        1         2
 7 KL25          248       182   0.0261   0.0288    36        1         5
 8 KL30          227       153   0.0239   0.0242    51        1         3
 9 KL28          175       148   0.0185   0.0235    31        1         5
10 KL17          232       148   0.0245   0.0235    15        1         4
# ℹ 130 more rows
# ℹ 6 more variables: n_O_type <int>, n_Country <int>, n_Study <int>,
#   n_Site <int>, n_Cluster <int>, n_Large_cluster <int>
# ℹ Use `print(n = ...)` to see more rows
```
…
